Base path: C:/Program Files/Unity/Hub/Editor/2018.3.13f1/Editor/Data
Cmd: initializeCompiler
Cmd: compileComputeKernel
  api=4 insize=1945 outsize=1237 ok=1
Cmd: initializeCompiler
Cmd: initializeCompiler
